172.29.119.194
172.29.118.10
172.29.102.102
172.29.102.23
172.29.102.41
172.29.102.42
172.29.110.106
172.29.110.11
172.29.110.112
172.29.110.114
172.29.110.117
172.29.110.118
172.29.110.119
172.29.110.73
172.29.110.89
172.29.110.93
172.29.110.95
172.29.112.6
172.29.118.104
172.29.118.108
172.29.118.11
172.29.118.110
172.29.118.111
172.29.118.113
172.29.118.125
172.29.118.126
172.29.118.127
172.29.118.13
172.29.118.21
172.29.118.22
172.29.118.4
172.29.118.5
172.29.118.50
172.29.118.51
172.29.118.53
172.29.118.54
172.29.118.56
172.29.118.57
172.29.118.9
172.29.118.90
172.29.118.91
172.29.118.92
172.29.118.94
172.29.118.96
172.29.119.10
172.29.119.100
172.29.119.101
172.29.119.102
172.29.119.103
172.29.119.104
172.29.119.105
172.29.119.106
172.29.119.108
172.29.119.109
172.29.119.11
172.29.119.110
172.29.119.111
172.29.119.112
172.29.119.113
172.29.119.114
172.29.119.115
172.29.119.116
172.29.119.118
172.29.119.119
172.29.119.12
172.29.119.120
172.29.119.121
172.29.119.122
172.29.119.123
172.29.119.124
172.29.119.125
172.29.119.126
172.29.119.127
172.29.119.128
172.29.119.129
172.29.119.13
172.29.119.130
172.29.119.131
172.29.119.132
172.29.119.133
172.29.119.134
172.29.119.135
172.29.119.136
172.29.119.136
172.29.119.136
172.29.119.137
172.29.119.138
172.29.119.139
172.29.119.14
172.29.119.140
172.29.119.141
172.29.119.142
172.29.119.143
172.29.119.144
172.29.119.145
172.29.119.146
172.29.119.147
172.29.119.148
172.29.119.149
172.29.119.15
172.29.119.150
172.29.119.151
172.29.119.152
172.29.119.153
172.29.119.154
172.29.119.155
172.29.119.156
172.29.119.157
172.29.119.158
172.29.119.159
172.29.119.160
172.29.119.161
172.29.119.162
172.29.119.163
172.29.119.164
172.29.119.165
172.29.119.166
172.29.119.167
172.29.119.168
172.29.119.169
172.29.119.17
172.29.119.170
172.29.119.171
172.29.119.172
172.29.119.174
172.29.119.175
172.29.119.176
172.29.119.177
172.29.119.178
172.29.119.179
172.29.119.18
172.29.119.180
172.29.119.181
172.29.119.182
172.29.119.183
172.29.119.184
172.29.119.185
172.29.119.186
172.29.119.188
172.29.119.189
172.29.119.19
172.29.119.190
172.29.119.191
172.29.119.192
172.29.119.193
172.29.119.196
172.29.119.197
172.29.119.198
172.29.119.20
172.29.119.200
172.29.119.201
172.29.119.202
172.29.119.203
172.29.119.204
172.29.119.206
172.29.119.207
172.29.119.208
172.29.119.209
172.29.119.209
172.29.119.21
172.29.119.211
172.29.119.212
172.29.119.213
172.29.119.214
172.29.119.215
172.29.119.216
172.29.119.217
172.29.119.218
172.29.119.219
172.29.119.22
172.29.119.220
172.29.119.221
172.29.119.223
172.29.119.226
172.29.119.227
172.29.119.23
172.29.119.233
172.29.119.24
172.29.119.25
172.29.119.26
172.29.119.27
172.29.119.28
172.29.119.29
172.29.119.30
172.29.119.31
172.29.119.33
172.29.119.34
172.29.119.35
172.29.119.36
172.29.119.37
172.29.119.38
172.29.119.39
172.29.119.4
172.29.119.40
172.29.119.42
172.29.119.43
172.29.119.44
172.29.119.45
172.29.119.46
172.29.119.47
172.29.119.48
172.29.119.49
172.29.119.5
172.29.119.5
172.29.119.50
172.29.119.51
172.29.119.52
172.29.119.53
172.29.119.54
172.29.119.55
172.29.119.56
172.29.119.57
172.29.119.58
172.29.119.59
172.29.119.6
172.29.119.60
172.29.119.61
172.29.119.64
172.29.119.65
172.29.119.66
172.29.119.67
172.29.119.68
172.29.119.69
172.29.119.7
172.29.119.70
172.29.119.71
172.29.119.73
172.29.119.74
172.29.119.75
172.29.119.76
172.29.119.77
172.29.119.78
172.29.119.79
172.29.119.8
172.29.119.80
172.29.119.81
172.29.119.82
172.29.119.83
172.29.119.84
172.29.119.86
172.29.119.88
172.29.119.89
172.29.119.90
172.29.119.92
172.29.119.93
172.29.119.95
172.29.119.96
172.29.119.97
172.29.119.98
172.29.119.99
172.29.120.4
172.29.120.7
172.29.121.100
172.29.121.117
172.29.121.139
172.29.121.22
172.29.122.87
172.29.125.132
172.29.125.133
172.29.125.134
172.29.125.135
172.29.125.136
172.29.125.138
172.29.125.139
172.29.125.140
172.29.125.141
172.29.125.142
172.29.125.143
172.29.125.144
172.29.125.145
172.29.125.146
172.29.125.147
172.29.125.148
172.29.125.149
172.29.125.150
172.29.125.151
172.29.125.152
172.29.125.153
172.29.125.154
172.29.125.155
172.29.125.156
172.29.125.157
172.29.125.158
172.29.125.160
172.29.125.161
172.29.125.162
172.29.125.163
172.29.125.165
172.29.125.166
172.29.125.167
172.29.125.168
172.29.125.169
172.29.125.171
172.29.125.189
172.29.125.194
172.29.125.195
172.29.125.196
172.29.125.197
172.29.125.198
172.29.125.199
172.29.125.200
172.29.125.202
172.29.125.204
172.29.125.206
172.29.125.208
172.29.125.209
172.29.125.210
172.29.125.211
172.29.125.212
172.29.125.213
172.29.125.215
172.29.125.216
172.29.125.217
172.29.125.218
172.29.125.219
172.29.125.220
172.29.125.223
172.29.125.224
172.29.125.225
172.29.125.228
172.29.125.230
172.29.125.231
172.29.125.235
172.29.125.236
172.29.125.241
172.29.125.243
172.29.125.243
172.29.125.68
172.29.126.68
172.29.126.69
172.29.126.70
172.29.126.70
172.29.126.71
172.29.126.72
172.29.126.76
172.29.126.77
172.29.126.87
172.29.126.88
172.29.16.18
172.29.16.221
172.29.16.226
172.29.16.231
172.29.16.239
172.29.16.245
172.29.16.246
172.29.16.250
172.29.16.37
172.29.16.39
172.29.16.41
172.29.18.222
172.29.18.226
172.29.18.227
172.29.18.228
172.29.18.229
172.29.18.232
172.29.18.233
172.29.18.234
172.29.18.237
172.29.18.245
172.29.18.248
172.29.18.252
172.29.24.227
172.29.24.246
172.29.24.247
172.29.24.248
172.29.24.249
172.29.25.204
172.29.26.102
172.29.26.103
172.29.26.104
172.29.26.105
172.29.26.106
172.29.26.107
172.29.26.108
172.29.26.109
172.29.26.110
172.29.26.111
172.29.26.112
172.29.26.113
172.29.26.114
172.29.26.115
172.29.26.116
172.29.26.117
172.29.26.119
172.29.26.120
172.29.26.121
172.29.26.122
172.29.26.123
172.29.26.124
172.29.26.125
172.29.26.126
172.29.26.128
172.29.26.129
172.29.26.130
172.29.26.131
172.29.26.132
172.29.26.133
172.29.26.134
172.29.26.135
172.29.26.136
172.29.26.138
172.29.26.139
172.29.26.140
172.29.26.141
172.29.26.142
172.29.26.143
172.29.26.144
172.29.26.145
172.29.26.146
172.29.26.148
172.29.26.149
172.29.26.150
172.29.26.152
172.29.26.153
172.29.26.154
172.29.26.155
172.29.26.156
172.29.26.160
172.29.26.161
172.29.26.162
172.29.26.163
172.29.26.164
172.29.26.165
172.29.26.166
172.29.26.167
172.29.26.168
172.29.26.169
172.29.26.172
172.29.26.173
172.29.26.174
172.29.26.175
172.29.26.176
172.29.26.177
172.29.26.178
172.29.26.179
172.29.26.180
172.29.26.181
172.29.26.182
172.29.26.183
172.29.26.184
172.29.26.185
172.29.26.186
172.29.26.187
172.29.26.188
172.29.26.190
172.29.26.191
172.29.26.192
172.29.26.193
172.29.26.194
172.29.26.195
172.29.26.197
172.29.26.198
172.29.26.199
172.29.26.204
172.29.26.205
172.29.26.209
172.29.26.216
172.29.26.217
172.29.26.218
172.29.26.219
172.29.26.221
172.29.26.225
172.29.26.226
172.29.26.227
172.29.26.247
172.29.26.248
172.29.26.249
172.29.26.25
172.29.26.250
172.29.26.26
172.29.26.28
172.29.26.34
172.29.26.35
172.29.26.36
172.29.26.9
172.29.26.95
172.29.26.96
172.29.26.97
172.29.28.13
172.29.28.139
172.29.28.2
172.29.28.38
172.29.28.4
172.29.28.58
172.29.28.69
172.29.28.70
172.29.28.75
172.29.28.78
172.29.28.95
172.29.30.100
172.29.30.101
172.29.30.102
172.29.30.103
172.29.30.104
172.29.30.105
172.29.30.106
172.29.30.107
172.29.30.108
172.29.30.109
172.29.30.126
172.29.30.127
172.29.30.132
172.29.30.199
172.29.30.200
172.29.30.201
172.29.30.202
172.29.30.203
172.29.30.204
172.29.30.205
172.29.30.206
172.29.30.207
172.29.30.209
172.29.30.210
172.29.30.211
172.29.30.212
172.29.30.213
172.29.30.214
172.29.30.215
172.29.30.216
172.29.30.217
172.29.30.218
172.29.30.219
172.29.30.220
172.29.30.221
172.29.30.223
172.29.30.224
172.29.30.228
172.29.30.231
172.29.30.232
172.29.30.233
172.29.30.234
172.29.30.235
172.29.30.236
172.29.30.237
172.29.30.238
172.29.30.239
172.29.30.241
172.29.30.242
172.29.30.243
172.29.30.245
172.29.30.249
172.29.30.250
172.29.30.251
172.29.30.252
172.29.30.254
172.29.30.47
172.29.30.57
172.29.30.59
172.29.30.60
172.29.30.62
172.29.30.63
172.29.30.64
172.29.30.68
172.29.30.69
172.29.30.73
172.29.30.76
172.29.30.77
172.29.30.78
172.29.30.80
172.29.30.83
172.29.30.85
172.29.30.89
172.29.30.91
172.29.30.99
172.29.30.226
172.30.1.118
